<svg xmlns="http://www.w3.org/2000/svg" width="15" height="15" viewBox="0 0 15 15">
  <metadata><?xpacket begin="﻿" id="W5M0MpCehiHzreSzNTczkc9d"?>
<x:xmpmeta xmlns:x="adobe:ns:meta/" x:xmptk="Adobe XMP Core 5.6-c138 79.159824, 2016/09/14-01:09:01        ">
   <rdf:RDF xmlns:rdf="http://www.w3.org/1999/02/22-rdf-syntax-ns#">
      <rdf:Description rdf:about=""/>
   </rdf:RDF>
</x:xmpmeta>
                                                                                                    
                                                                                                    
                                                                                                    
                                                                                                    
                                                                                                    
                                                                                                    
                                                                                                    
                                                                                                    
                                                                                                    
                                                                                                    
                                                                                                    
                                                                                                    
                                                                                                    
                                                                                                    
                                                                                                    
                                                                                                    
                                                                                                    
                                                                                                    
                                                                                                    
                                                                                                    
                           
<?xpacket end="w"?></metadata>
<defs>
    <style>
      .cls-1 {
        fill: #043165;
        fill-rule: evenodd;
      }
    </style>
  </defs>
  <path id="setting" class="cls-1" d="M1218.92,154.206a0.3,0.3,0,0,0-.2-0.122l-1.79-.274a6.065,6.065,0,0,0-.4-0.957c0.12-.163.29-0.392,0.53-0.689s0.4-.512.5-0.649a0.383,0.383,0,0,0,.07-0.225,0.347,0.347,0,0,0-.06-0.215,14.123,14.123,0,0,0-1.62-1.66,0.362,0.362,0,0,0-.24-0.1,0.293,0.293,0,0,0-.23.088l-1.39,1.045a6.212,6.212,0,0,0-.88-0.361l-0.27-1.8a0.3,0.3,0,0,0-.12-0.21,0.354,0.354,0,0,0-.24-0.083h-2.16a0.339,0.339,0,0,0-.36.273c-0.08.326-.17,0.931-0.28,1.817a5.575,5.575,0,0,0-.89.371l-1.35-1.045a0.386,0.386,0,0,0-.25-0.1,2.313,2.313,0,0,0-.92.7,8.817,8.817,0,0,0-.96,1.05,0.4,0.4,0,0,0-.09.224,0.348,0.348,0,0,0,.1.235c0.43,0.527.78,0.976,1.04,1.348a4.926,4.926,0,0,0-.38.9l-1.82.274a0.281,0.281,0,0,0-.18.127,0.39,0.39,0,0,0-.08.224v2.168a0.384,0.384,0,0,0,.08.23,0.3,0.3,0,0,0,.2.122l1.79,0.264a4.546,4.546,0,0,0,.4.967c-0.12.162-.29,0.392-0.53,0.688s-0.4.513-.5,0.65a0.38,0.38,0,0,0-.07.224,0.421,0.421,0,0,0,.06.225,13.581,13.581,0,0,0,1.62,1.641,0.345,0.345,0,0,0,.48.019l1.38-1.045a6.213,6.213,0,0,0,.88.362l0.27,1.8a0.3,0.3,0,0,0,.12.21,0.359,0.359,0,0,0,.24.083h2.16a0.339,0.339,0,0,0,.36-0.274,16.292,16.292,0,0,0,.28-1.816,5.669,5.669,0,0,0,.89-0.371l1.35,1.054a0.454,0.454,0,0,0,.25.088,2.312,2.312,0,0,0,.92-0.693,8.944,8.944,0,0,0,.96-1.055,0.322,0.322,0,0,0,.09-0.225,0.357,0.357,0,0,0-.1-0.244c-0.46-.573-0.81-1.022-1.04-1.348a5.9,5.9,0,0,0,.38-0.888l1.81-.274a0.277,0.277,0,0,0,.19-0.127,0.335,0.335,0,0,0,.08-0.225v-2.168A0.328,0.328,0,0,0,1218.92,154.206Zm-5.65,3.062a2.506,2.506,0,1,1,.73-1.768A2.418,2.418,0,0,1,1213.27,157.268Z" transform="translate(-1204 -148)"/>
</svg>
